R for Water Resources Data Science: 10. Joining Data
…
Uh-oh, an error message! But if we look more closely, this error message is pretty descriptive. It tells us the two pieces we are working with (x = calenviro and y = sac_stations) dont have a common variable name. Then it gives us a suggestion, use by = character(). Lets try specifying the column names we want to join using the by argument. Note, we need to quote the variable names here (a character() vector), and they need to match the same order the dataframes were provided (x and y).

calenviro_stations <- inner_join(sac_stations, calenviro,
                                by = c("COUNTY_NAME" = "California County"))

dim(calenviro_stations)

[1] 156598     71

Great this worked! But lets figure out why there are so many records if there were only n = 494 stations.

# how many stations per census tract?
calenviro_stations %>% count(`Census Tract`)

# A tibble: 317 x 2
   `Census Tract`     n
            <dbl> <int>
 1     6067000100   494
 2     6067000200   494
 3     6067000300   494
 4     6067000400   494
 5     6067000500   494
 6     6067000600   494
 7     6067000700   494
 8     6067000800   494
 9     6067001101   494
10     6067001200   494
#  with 307 more rows

# how many census tracts in Sacramento County
calenviro_stations %>% count(`Census Tract`)

# A tibble: 317 x 2
   `Census Tract`     n
            <dbl> <int>
 1     6067000100   494
 2     6067000200   494
 3     6067000300   494
 4     6067000400   494
 5     6067000500   494
 6     6067000600   494
 7     6067000700   494
 8     6067000800   494
 9     6067001101   494
10     6067001200   494
#  with 307 more rows
…
