R for Water Resources Data Science: 8. Advanced spatial R and mapmaking
…
Deleting layer `san_joaquin_isd_data' using driver `GPKG'
Writing layer `san_joaquin_isd_data' to data source 
  `data/san_joaquin_gsod.gpkg' using driver `GPKG'
Writing 17040 features with 47 fields without geometries.
Deleting layer `sacramento_isd_data' using driver `GPKG'
Writing layer `sacramento_isd_data' to data source 
  `data/sacramento_gsod.gpkg' using driver `GPKG'
Writing 17524 features with 47 fields without geometries.

[[1]]
# A tibble: 17,040 x 47
   STNID NAME  CTRY  COUNTRY_NAME ISO2C ISO3C STATE LATITUDE LONGITUDE
   <chr> <chr> <chr> <chr>        <chr> <chr> <chr>    <dbl>     <dbl>
 1 7248 SACR US    UNITED STAT US    USA   CA        38.7     -121.
 2 7248 SACR US    UNITED STAT US    USA   CA        38.7     -121.
 3 7248 SACR US    UNITED STAT US    USA   CA        38.7     -121.
 4 7248 SACR US    UNITED STAT US    USA   CA        38.7     -121.
 5 7248 SACR US    UNITED STAT US    USA   CA        38.7     -121.
 6 7248 SACR US    UNITED STAT US    USA   CA        38.7     -121.
 7 7248 SACR US    UNITED STAT US    USA   CA        38.7     -121.
 8 7248 SACR US    UNITED STAT US    USA   CA        38.7     -121.
 9 7248 SACR US    UNITED STAT US    USA   CA        38.7     -121.
10 7248 SACR US    UNITED STAT US    USA   CA        38.7     -121.
#  with 17,030 more rows, and 38 more variables: ELEVATION <dbl>,
#   BEGIN <int>, END <int>, YEARMODA <date>, YEAR <int>, MONTH <int>,
#   DAY <int>, YDAY <int>, TEMP <dbl>, TEMP_ATTRIBUTES <chr>,
#   DEWP <dbl>, DEWP_ATTRIBUTES <chr>, SLP <dbl>,
#   SLP_ATTRIBUTES <chr>, STP <dbl>, STP_ATTRIBUTES <chr>,
#   VISIB <dbl>, VISIB_ATTRIBUTES <chr>, WDSP <dbl>,
#   WDSP_ATTRIBUTES <chr>, MXSPD <dbl>, GUST <dbl>, MAX <dbl>,
#   MAX_ATTRIBUTES <chr>, MIN <dbl>, MIN_ATTRIBUTES <chr>,
#   PRCP <dbl>, PRCP_ATTRIBUTES <chr>, SNDP <dbl>, I_FOG <dbl>,
#   I_RAIN_DRIZZLE <dbl>, I_SNOW_ICE <dbl>, I_HAIL <dbl>,
#   I_THUNDER <dbl>, I_TORNADO_FUNNEL <dbl>, EA <dbl>, ES <dbl>,
#   RH <dbl>

[[2]]
# A tibble: 17,524 x 47
   STNID NAME  CTRY  COUNTRY_NAME ISO2C ISO3C STATE LATITUDE LONGITUDE
   <chr> <chr> <chr> <chr>        <chr> <chr> <chr>    <dbl>     <dbl>
 1 7249 STOC US    UNITED STAT US    USA   CA        37.9     -121.
 2 7249 STOC US    UNITED STAT US    USA   CA        37.9     -121.
 3 7249 STOC US    UNITED STAT US    USA   CA        37.9     -121.
 4 7249 STOC US    UNITED STAT US    USA   CA        37.9     -121.
 5 7249 STOC US    UNITED STAT US    USA   CA        37.9     -121.
 6 7249 STOC US    UNITED STAT US    USA   CA        37.9     -121.
 7 7249 STOC US    UNITED STAT US    USA   CA        37.9     -121.
 8 7249 STOC US    UNITED STAT US    USA   CA        37.9     -121.
 9 7249 STOC US    UNITED STAT US    USA   CA        37.9     -121.
10 7249 STOC US    UNITED STAT US    USA   CA        37.9     -121.
#  with 17,514 more rows, and 38 more variables: ELEVATION <dbl>,
#   BEGIN <int>, END <int>, YEARMODA <date>, YEAR <int>, MONTH <int>,
#   DAY <int>, YDAY <int>, TEMP <dbl>, TEMP_ATTRIBUTES <chr>,
#   DEWP <dbl>, DEWP_ATTRIBUTES <chr>, SLP <dbl>,
#   SLP_ATTRIBUTES <chr>, STP <dbl>, STP_ATTRIBUTES <chr>,
#   VISIB <dbl>, VISIB_ATTRIBUTES <chr>, WDSP <dbl>,
#   WDSP_ATTRIBUTES <chr>, MXSPD <dbl>, GUST <dbl>, MAX <dbl>,
#   MAX_ATTRIBUTES <chr>, MIN <dbl>, MIN_ATTRIBUTES <chr>,
#   PRCP <dbl>, PRCP_ATTRIBUTES <chr>, SNDP <dbl>, I_FOG <dbl>,
…
