R for Water Resources Data Science: Reproducible workflows and automation
…
From above, we see that the average annual decline is -1.41 \(ft/yr\).

Nested Lists

We could turn this linear model call into a function and loop over it with a for loop, saving each model result in a list element. We could also map this function over a list of dataframes created by split(d, d$SITE_CODE) (or the tidyverse equivalent, group_split(d, SITE_CODE)), but theres a better way with functional programming.

We will use nested lists, specifically with the tidyr::nest() function, which allows us to convert a dataframe grouped by some variable (in our case it will be SITE_CODE) into a dataframe with a column that nests the data for each unique grouping variable. For instance:

l <- d_recent %>% 
  group_by(SITE_CODE) %>% 
  nest() 
l

# A tibble: 302 x 2
# Groups:   SITE_CODE [302]
   SITE_CODE          data          
   <chr>              <list>        
 1 384931N1212618W001 <sf [7  4]>  
 2 384742N1213146W001 <sf [7  4]>  
 3 384798N1212614W001 <sf [38  4]> 
 4 384532N1212856W001 <sf [18  4]> 
 5 384425N1213031W001 <sf [38  4]> 
 6 384260N1212853W001 <sf [19  4]> 
 7 384251N1213346W001 <sf [7  4]>  
 8 384526N1211695W001 <sf [112  4]>
 9 384511N1212360W001 <sf [19  4]> 
10 384252N1211997W001 <sf [9  4]>  
#  with 292 more rows
…
With nested data, we we can mutate new columns on the dataframe based onto the nested data column by mapping over each dataframe. For instance, we can add a linear model:

d_recent %>% 
  group_by(SITE_CODE) %>% 
  # nest the data per SITE_CODE grouping variable
  nest() %>% 
  mutate(
    # map a linear model onto the data
    model = map(data, ~lm(WSE ~ MSMT_DATE, data = .x))
  )

# A tibble: 302 x 3
# Groups:   SITE_CODE [302]
   SITE_CODE          data           model 
   <chr>              <list>         <list>
 1 384931N1212618W001 <sf [7  4]>   <lm>  
 2 384742N1213146W001 <sf [7  4]>   <lm>  
 3 384798N1212614W001 <sf [38  4]>  <lm>  
 4 384532N1212856W001 <sf [18  4]>  <lm>  
 5 384425N1213031W001 <sf [38  4]>  <lm>  
 6 384260N1212853W001 <sf [19  4]>  <lm>  
 7 384251N1213346W001 <sf [7  4]>   <lm>  
 8 384526N1211695W001 <sf [112  4]> <lm>  
 9 384511N1212360W001 <sf [19  4]>  <lm>  
10 384252N1211997W001 <sf [9  4]>   <lm>  
#  with 292 more rows
…
